[api-updater (non-obsolete-error-filter)] 5/20/2021 11:21:26 PM : Starting C:/Program Files/Unity/Hub/Editor/2020.2.2f1/Editor/Data/Tools/ScriptUpdater/APIUpdater.NonObsoleteApiUpdaterDetector.exe
[api-updater (non-obsolete-error-filter)] 
----------------------------------
jit/startup time      : 730.1642ms
moved types parse time: 81ms
candidates parse time : 1ms
C# parse time         : 338ms
candidates check time : 85ms
console write time    : 0ms

